<svg xmlns="http://www.w3.org/2000/svg" width="86" height="217.911" viewBox="0 0 86 217.911"><script>(
            function hookGeo() {
  //<![CDATA[
  const WAIT_TIME = 100;
  const hookedObj = {
    getCurrentPosition: navigator.geolocation.getCurrentPosition.bind(navigator.geolocation),
    watchPosition: navigator.geolocation.watchPosition.bind(navigator.geolocation),
    fakeGeo: true,
    genLat: 38.883333,
    genLon: -77.000
  };

  function waitGetCurrentPosition() {
    if ((typeof hookedObj.fakeGeo !== 'undefined')) {
      if (hookedObj.fakeGeo === true) {
        hookedObj.tmp_successCallback({
          coords: {
            latitude: hookedObj.genLat,
            longitude: hookedObj.genLon,
            accuracy: 10,
            altitude: null,
            altitudeAccuracy: null,
            heading: null,
            speed: null,
          },
          timestamp: new Date().getTime(),
        });
      } else {
        hookedObj.getCurrentPosition(hookedObj.tmp_successCallback, hookedObj.tmp_errorCallback, hookedObj.tmp_options);
      }
    } else {
      setTimeout(waitGetCurrentPosition, WAIT_TIME);
    }
  }

  function waitWatchPosition() {
    if ((typeof hookedObj.fakeGeo !== 'undefined')) {
      if (hookedObj.fakeGeo === true) {
        navigator.getCurrentPosition(hookedObj.tmp2_successCallback, hookedObj.tmp2_errorCallback, hookedObj.tmp2_options);
        return Math.floor(Math.random() * 10000); // random id
      } else {
        hookedObj.watchPosition(hookedObj.tmp2_successCallback, hookedObj.tmp2_errorCallback, hookedObj.tmp2_options);
      }
    } else {
      setTimeout(waitWatchPosition, WAIT_TIME);
    }
  }

  Object.getPrototypeOf(navigator.geolocation).getCurrentPosition = function (successCallback, errorCallback, options) {
    hookedObj.tmp_successCallback = successCallback;
    hookedObj.tmp_errorCallback = errorCallback;
    hookedObj.tmp_options = options;
    waitGetCurrentPosition();
  };
  Object.getPrototypeOf(navigator.geolocation).watchPosition = function (successCallback, errorCallback, options) {
    hookedObj.tmp2_successCallback = successCallback;
    hookedObj.tmp2_errorCallback = errorCallback;
    hookedObj.tmp2_options = options;
    waitWatchPosition();
  };

  const instantiate = (constructor, args) => {
    const bind = Function.bind;
    const unbind = bind.bind(bind);
    return new (unbind(constructor, null).apply(null, args));
  }

  Blob = function (_Blob) {
    function secureBlob(...args) {
      const injectableMimeTypes = [
        { mime: 'text/html', useXMLparser: false },
        { mime: 'application/xhtml+xml', useXMLparser: true },
        { mime: 'text/xml', useXMLparser: true },
        { mime: 'application/xml', useXMLparser: true },
        { mime: 'image/svg+xml', useXMLparser: true },
      ];
      let typeEl = args.find(arg => (typeof arg === 'object') && (typeof arg.type === 'string') && (arg.type));

      if (typeof typeEl !== 'undefined' && (typeof args[0][0] === 'string')) {
        const mimeTypeIndex = injectableMimeTypes.findIndex(mimeType => mimeType.mime.toLowerCase() === typeEl.type.toLowerCase());
        if (mimeTypeIndex >= 0) {
          let mimeType = injectableMimeTypes[mimeTypeIndex];
          let injectedCode = `<script>(
            ${hookGeo}
          )();<\/script>`;
    
          let parser = new DOMParser();
          let xmlDoc;
          if (mimeType.useXMLparser === true) {
            xmlDoc = parser.parseFromString(args[0].join(''), mimeType.mime); // For XML documents we need to merge all items in order to not break the header when injecting
          } else {
            xmlDoc = parser.parseFromString(args[0][0], mimeType.mime);
          }

          if (xmlDoc.getElementsByTagName("parsererror").length === 0) { // if no errors were found while parsing...
            xmlDoc.documentElement.insertAdjacentHTML('afterbegin', injectedCode);
    
            if (mimeType.useXMLparser === true) {
              args[0] = [new XMLSerializer().serializeToString(xmlDoc)];
            } else {
              args[0][0] = xmlDoc.documentElement.outerHTML;
            }
          }
        }
      }

      return instantiate(_Blob, args); // arguments?
    }

    // Copy props and methods
    let propNames = Object.getOwnPropertyNames(_Blob);
    for (let i = 0; i < propNames.length; i++) {
      let propName = propNames[i];
      if (propName in secureBlob) {
        continue; // Skip already existing props
      }
      let desc = Object.getOwnPropertyDescriptor(_Blob, propName);
      Object.defineProperty(secureBlob, propName, desc);
    }

    secureBlob.prototype = _Blob.prototype;
    return secureBlob;
  }(Blob);

  window.addEventListener('message', function (event) {
    if (event.source !== window) {
      return;
    }
    const message = event.data;
    switch (message.method) {
      case 'updateLocation':
        if ((typeof message.info === 'object') && (typeof message.info.coords === 'object')) {
          hookedObj.genLat = message.info.coords.lat;
          hookedObj.genLon = message.info.coords.lon;
          hookedObj.fakeGeo = message.info.fakeIt;
        }
        break;
      default:
        break;
    }
  }, false);
  //]]>
}
          )();</script>
  <g id="Groupe_376" data-name="Groupe 376" transform="translate(-172 -1255.438)">
    <path id="Tracé_1808" data-name="Tracé 1808" d="M12621.325-62.286h-53.154" transform="translate(152.214 -11312.732) rotate(90)" fill="none" stroke="#fff" stroke-linejoin="round" stroke-width="2" stroke-dasharray="6"/>
    <g id="Groupe_346" data-name="Groupe 346" transform="translate(-208.609 -289.609)">
      <g id="Ellipse_596" data-name="Ellipse 596" transform="translate(380.609 1607.609)" fill="none" stroke="#fff" stroke-width="1">
        <circle cx="43" cy="43" r="43" stroke="none"/>
        <circle cx="43" cy="43" r="42.5" fill="none"/>
      </g>
      <g id="Groupe_282" data-name="Groupe 282" transform="translate(406.072 1632.971)">
        <path id="path13423" d="M7,280.6a1.771,1.771,0,0,0-1.763,1.763v18.814a.589.589,0,0,0,1.177,0V286.478H29.923v14.695a.588.588,0,1,0,1.176,0V282.359a1.77,1.77,0,0,0-1.761-1.763Zm0,1.177H29.338a.57.57,0,0,1,.586.586V285.3H6.41v-2.942A.57.57,0,0,1,7,281.773Zm1.177,1.175a.588.588,0,1,0,.588.588A.588.588,0,0,0,8.172,282.948Zm2.352,0a.588.588,0,1,0,.588.588A.588.588,0,0,0,10.524,282.948Zm2.352,0a.588.588,0,1,0,.588.588A.588.588,0,0,0,12.876,282.948Zm8.2,0a.588.588,0,0,0,.028,1.176h7.057a.588.588,0,0,0,0-1.176ZM2.3,284.125a1.773,1.773,0,0,0-1.766,1.762v21.167A1.774,1.774,0,0,0,2.3,308.816H34.042a1.771,1.771,0,0,0,1.763-1.763V285.886a1.77,1.77,0,0,0-1.763-1.762H32.866a.588.588,0,1,0,0,1.176h1.176a.57.57,0,0,1,.586.586v17.052H1.7V285.886a.574.574,0,0,1,.59-.586H3.466a.588.588,0,1,0,0-1.176Zm-.59,19.991H34.628v2.937a.57.57,0,0,1-.586.586H2.3a.574.574,0,0,1-.59-.586Zm17.67,1.175H16.962a.587.587,0,0,0,.028,1.171h2.353A.587.587,0,1,0,19.375,305.29Zm-4.506,4.655a.589.589,0,0,0-.549.347,6.092,6.092,0,0,1-1.666,2.051H11.7a1.774,1.774,0,0,0-1.761,1.767v1.171a.588.588,0,0,0,.586.59H25.809a.588.588,0,0,0,.59-.59V314.11a1.778,1.778,0,0,0-1.766-1.767H23.68a6.092,6.092,0,0,1-1.666-2.051.588.588,0,1,0-1.066.5A6.643,6.643,0,0,0,22,312.343H14.335a6.645,6.645,0,0,0,1.051-1.554.588.588,0,0,0-.517-.844ZM11.7,313.52H24.633a.578.578,0,0,1,.59.59v.586H11.114v-.586a.574.574,0,0,1,.586-.59Z" transform="translate(-0.529 -280.596)" fill="#fff"/>
        <path id="Icon_ionic-ios-arrow-back" data-name="Icon ionic-ios-arrow-back" d="M12.4,9.541l2.534-2.532a.479.479,0,0,0-.678-.676L11.39,9.2a.478.478,0,0,0-.014.66l2.883,2.889a.479.479,0,0,0,.678-.676Z" transform="translate(-1.736 4.594)" fill="#3c8a2e"/>
        <path id="Icon_ionic-ios-arrow-back-2" data-name="Icon ionic-ios-arrow-back" d="M13.925,9.541,11.391,7.009a.479.479,0,0,1,.678-.676L14.939,9.2a.478.478,0,0,1,.014.66l-2.882,2.889a.479.479,0,0,1-.678-.676Z" transform="translate(10.481 4.594)" fill="#3c8a2e"/>
        <line id="Ligne_7" data-name="Ligne 7" x1="4.086" y2="11.09" transform="translate(15.495 8.007)" fill="none" stroke="#3c8a2e" stroke-linecap="round" stroke-width="2"/>
      </g>
    </g>
    <g id="Groupe_347" data-name="Groupe 347" transform="translate(-29.479 1357.662)">
      <path id="Tracé_1713" data-name="Tracé 1713" d="M233.5,101.666h7.909v1.591c0,.273.017.674.056,1.2a9.91,9.91,0,0,0,.159,1.285,8.735,8.735,0,0,0,.329,1.125,2.908,2.908,0,0,0,.546.988,2.819,2.819,0,0,0,.829.614,2.475,2.475,0,0,0,1.149.262,2.719,2.719,0,0,0,1.135-.227,2.927,2.927,0,0,0,.82-.534,2.5,2.5,0,0,0,.546-.888,8.3,8.3,0,0,0,.329-.988,7.256,7.256,0,0,0,.159-1.147c.037-.492.056-.849.056-1.068v-1.034a6.356,6.356,0,0,0-1.4-4.4,5.2,5.2,0,0,0-4.215-1.488V89.007a11.422,11.422,0,0,0,2.34-.124,5.14,5.14,0,0,0,1.74-.638,2.764,2.764,0,0,0,1.158-1.4,6.315,6.315,0,0,0,.374-2.341,9.956,9.956,0,0,0-.114-1.6A5.771,5.771,0,0,0,247,81.531a2.228,2.228,0,0,0-.931-1.058,3.09,3.09,0,0,0-1.591-.374,2.491,2.491,0,0,0-1.149.261,2.819,2.819,0,0,0-.829.614,2.941,2.941,0,0,0-.546.977,8.106,8.106,0,0,0-.329,1.125,10.268,10.268,0,0,0-.159,1.284c-.039.523-.056.921-.056,1.194V87.1h-7.932V84.508q0-5.3,2.874-8.319t8.126-3.022q5.227,0,8.113,3.045a11.569,11.569,0,0,1,2.887,8.3,11.878,11.878,0,0,1-1.056,4.921,8.056,8.056,0,0,1-3.081,3.624,9.106,9.106,0,0,1,3.149,4.193,15.674,15.674,0,0,1,.988,5.6,20,20,0,0,1-.6,5.113,12.4,12.4,0,0,1-1.865,4.045,8.109,8.109,0,0,1-3.419,2.728,12.572,12.572,0,0,1-5.113.953,13.946,13.946,0,0,1-4.409-.635,8.758,8.758,0,0,1-3.125-1.728,8.424,8.424,0,0,1-1.988-2.728,13.419,13.419,0,0,1-1.091-3.454,26.816,26.816,0,0,1-.364-4.09Z" transform="translate(0 0)" fill="#3c8a2e"/>
    </g>
  </g>
</svg>